/* XPM */
static char * new_separator_small_xpm[] = {
"16 16 86 1",
" 	c None",
".	c #000000",
"+	c #31312D",
"@	c #3D3D37",
"#	c #8A8A7C",
"$	c #DDDDC6",
"%	c #8C8C7F",
"&	c #2F2F2A",
"*	c #848476",
"=	c #CCCCB7",
"-	c #D8D8C2",
";	c #DCDCC5",
">	c #E1E1C9",
",	c #59594F",
"'	c #6A6A6A",
")	c #7D7D75",
"!	c #D2D2BB",
"~	c #D6D6C0",
"{	c #DADAC3",
"]	c #181E13",
"^	c #C2C2AF",
"/	c #44443F",
"(	c #9C9C9C",
"_	c #989894",
":	c #ACAC9A",
"<	c #D7D7C1",
"[	c #1B2215",
"}	c #EEEED5",
"|	c #999989",
"1	c #9F9F99",
"2	c #999993",
"3	c #8C8C7E",
"4	c #A6A694",
"5	c #191916",
"6	c #546942",
"7	c #516640",
"8	c #1B1B18",
"9	c #BDBDAA",
"0	c #46463F",
"a	c #353533",
"b	c #939386",
"c	c #CFCFB8",
"d	c #E0E0C8",
"e	c #B3B3A0",
"f	c #2F3B25",
"g	c #BEBEAA",
"h	c #F4F4DB",
"i	c #CECEB9",
"j	c #363631",
"k	c #585853",
"l	c #C1C1AC",
"m	c #929283",
"n	c #979788",
"o	c #9B9B8B",
"p	c #6A6A5F",
"q	c #6C6C61",
"r	c #A3A393",
"s	c #969687",
"t	c #2B2B29",
"u	c #949484",
"v	c #B2B2A3",
"w	c #E6E6CE",
"x	c #E9E9D1",
"y	c #EDEDD4",
"z	c #F1F1D8",
"A	c #D9D9C3",
"B	c #494D3F",
"C	c #5F5F57",
"D	c #EBEBD3",
"E	c #F0F0D7",
"F	c #F2F2D9",
"G	c #E8E8D0",
"H	c #494E3F",
"I	c #4D603C",
"J	c #2B3522",
"K	c #EAEAD2",
"L	c #9D9D8D",
"M	c #161B11",
"N	c #485A39",
"O	c #293420",
"P	c #353530",
"Q	c #E2E2CB",
"R	c #6D6D62",
"S	c #33332E",
"T	c #344229",
"U	c #2D3924",
"                ",
"     .++        ",
"   .@#$%        ",
" .&*=-;>,       ",
".')!~{]]^/      ",
".(_:<$[[}|.     ",
".1234567890     ",
".abcdeffghij    ",
".klmnopqrrrs..  ",
" tu............ ",
" .vwxyzhAB.     ",
"  CDyEFGHIJ     ",
"  .uzKL&MNO.    ",
"   PQRS .T.     ",
"    .    U.     ",
"                "};
