/* XPM */
static char * new_alias_xpm[] = {
"24 24 85 1",
" 	c None",
".	c #000000",
"+	c #ADAD9C",
"@	c #959585",
"#	c #DCDCC5",
"$	c #DFDFC8",
"%	c #242424",
"&	c #A7A796",
"*	c #D7D7C1",
"=	c #D9D9C3",
"-	c #DCDCC4",
";	c #DDDDC7",
">	c #E1E1CA",
",	c #A6A694",
"'	c #D6D6BF",
")	c #D8D8C2",
"!	c #DBDBC4",
"~	c #DFDFC7",
"{	c #E3E3CB",
"]	c #B2B29F",
"^	c #7C7C7C",
"/	c #646464",
"(	c #D5D5BD",
"_	c #D5D5BF",
":	c #D7D7C0",
"<	c #DADAC3",
"[	c #DEDEC6",
"}	c #E1E1C9",
"|	c #E5E5CD",
"1	c #E7E7E7",
"2	c #373736",
"3	c #B8B8A6",
"4	c #D3D3BC",
"5	c #D9D9C2",
"6	c #DDDDC5",
"7	c #E0E0C8",
"8	c #ECECD4",
"9	c #EEEED5",
"0	c #ECECEC",
"a	c #EDEDED",
"b	c #3D3D37",
"c	c #CECEB7",
"d	c #E6E6CE",
"e	c #E8E8D0",
"f	c #A5A594",
"g	c #EEEEE5",
"h	c #3C3C3C",
"i	c #8F8F80",
"j	c #D0D0B9",
"k	c #E4E4CB",
"l	c #EAEAD1",
"m	c #ECECD3",
"n	c #F1F1D8",
"o	c #F3F3DA",
"p	c #EEEEE6",
"q	c #505050",
"r	c #929282",
"s	c #D1D1B9",
"t	c #E7E7CF",
"u	c #EBEBD2",
"v	c #F4F4DB",
"w	c #F5F5DC",
"x	c #969686",
"y	c #D2D2BC",
"z	c #E0E0C9",
"A	c #E9E9D0",
"B	c #EDEDD4",
"C	c #F0F0D7",
"D	c #797973",
"E	c #D8D8C1",
"F	c #DDDDC6",
"G	c #98988F",
"H	c #E4E4CC",
"I	c #E2E2CA",
"J	c #E9E9D1",
"K	c #EFEFD6",
"L	c #F2F2D9",
"M	c #BEBEAE",
"N	c #EAEAD2",
"O	c #4E4E4E",
"P	c #EBEBD3",
"Q	c #BBBBA8",
"R	c #CDCDB8",
"S	c #4D4D45",
"T	c #A6A696",
"                        ",
"          .             ",
"        ..+.            ",
"      ..@#$%            ",
"    ..&*=-;>.           ",
"  ..,'**)!~{]&          ",
" .^/'(_:<[}|....        ",
" .1234*567|.89& . .     ",
" .0abc_!7de.9.f&. .     ",
" .gghij7klm.n.o&. .     ",
" .pqrs-}tu9.o.vw. .     ",
" ..xy!z{ABC.v.ww.&.     ",
" .DE5F>tl9n.w.ww.).     ",
" .G!#$Htu9n.w.ww.&.     ",
"  .~7I|JmKL.w.ww.i.     ",
"  .M||eNBCo.w.<&. .     ",
"   OeJNBKLo.L.& . .     ",
"   .P8BKnLL.&.  . .     ",
"    .KCnLJ&. .  . .     ",
"    .QLoRS/.  ..  .     ",
"     .oT.   .    .      ",
"      ..     .  .       ",
"              ..        ",
"                        "};
