/* XPM */
static char * new_item_small_xpm[] = {
"16 16 122 2",
"  	c None",
". 	c #000000",
"+ 	c #31312D",
"@ 	c #3D3D37",
"# 	c #8A8A7C",
"$ 	c #DDDDC6",
"% 	c #8C8C7F",
"& 	c #2F2F2A",
"* 	c #848476",
"= 	c #CCCCB7",
"- 	c #D8D8C2",
"; 	c #DCDCC5",
"> 	c #E1E1C9",
", 	c #59594F",
"' 	c #6A6A6A",
") 	c #7D7D75",
"! 	c #D2D2BB",
"~ 	c #D6D6C0",
"{ 	c #DADAC3",
"] 	c #E0E0C8",
"^ 	c #E5E5CD",
"/ 	c #C2C2AF",
"( 	c #44443F",
"_ 	c #933E36",
": 	c #862820",
"< 	c #7B1810",
"[ 	c #9C9C9C",
"} 	c #989894",
"| 	c #ACAC9A",
"1 	c #D7D7C1",
"2 	c #E9E9D1",
"3 	c #B6C4C3",
"4 	c #5E7377",
"5 	c #685A60",
"6 	c #841818",
"7 	c #9F5149",
"8 	c #8C322A",
"9 	c #A55A52",
"0 	c #9F9F99",
"a 	c #999993",
"b 	c #8C8C7E",
"c 	c #D8D8C1",
"d 	c #E3E3CB",
"e 	c #DFE2CD",
"f 	c #91AAAD",
"g 	c #4E8998",
"h 	c #4D94AA",
"i 	c #6B7382",
"j 	c #7C1810",
"k 	c #811815",
"l 	c #353533",
"m 	c #939386",
"n 	c #CFCFB8",
"o 	c #E6E6CE",
"p 	c #A0B7BA",
"q 	c #74AABF",
"r 	c #4D989C",
"s 	c #41837E",
"t 	c #A19DA8",
"u 	c #801814",
"v 	c #7F1813",
"w 	c #585853",
"x 	c #D9D9C2",
"y 	c #E4E4CC",
"z 	c #6C95A5",
"A 	c #88C6DD",
"B 	c #477E71",
"C 	c #47866D",
"D 	c #9C8B80",
"E 	c #7B6C74",
"F 	c #71939E",
"G 	c #2B2B29",
"H 	c #DEDEC6",
"I 	c #E0E0C9",
"J 	c #EBEBD2",
"K 	c #5A8D9C",
"L 	c #94CEE2",
"M 	c #A1C8C3",
"N 	c #82AF9D",
"O 	c #CCB0AC",
"P 	c #A77B78",
"Q 	c #87C4D8",
"R 	c #578390",
"S 	c #B2B2A3",
"T 	c #EDEDD4",
"U 	c #739AA7",
"V 	c #86C0D8",
"W 	c #DFF6FE",
"X 	c #C5DAD3",
"Y 	c #5D957F",
"Z 	c #37765D",
"` 	c #72ADBE",
" .	c #7899A6",
"..	c #5F5F57",
"+.	c #EBEBD3",
"@.	c #F0F0D7",
"#.	c #B1C3BE",
"$.	c #6BA2B5",
"%.	c #A9DAEF",
"&.	c #CEEDF9",
"*.	c #37785F",
"=.	c #438885",
"-.	c #6795A5",
";.	c #8AA3AE",
">.	c #949484",
",.	c #F1F1D8",
"'.	c #EAEAD2",
").	c #9D9D8D",
"!.	c #708283",
"~.	c #6D9AAC",
"{.	c #6399AC",
"].	c #51878F",
"^.	c #6C98A4",
"/.	c #6F8E96",
"(.	c #353530",
"_.	c #E2E2CB",
":.	c #6D6D62",
"<.	c #33332E",
"[.	c #8EA5B0",
"}.	c #5C818E",
"|.	c #638991",
"1.	c #91ABB1",
"                                ",
"          . + +                 ",
"      . @ # $ % .               ",
"  . & * = - ; > , .             ",
". ' ) ! ~ { ] ^ / (       _ : < ",
". [ } | 1 $ ^ 2 3 4 5 6 7 8 9   ",
". 0 a b c d e f g h i j k k     ",
". l m n ] o p q r s t u < v     ",
". w x ; y 2 z A B C D < E F     ",
"  G H I o J K L M N O P Q R     ",
"  . S o 2 T U V W X Y Z `  .    ",
"    ..+.T @.#.$.%.&.*.=.-.;.    ",
"    . >.,.'.).!.~.{.].^./.      ",
"      (._.:.<.  [.}.|.1.        ",
"        . .                     ",
"                                "};
